%YAML 1.1
%TAG !u! tag:unity3d.com,2011:
--- !u!29 &1
OcclusionCullingSettings:
  m_ObjectHideFlags: 0
  serializedVersion: 2
  m_OcclusionBakeSettings:
    smallestOccluder: 5
    smallestHole: 0.25
    backfaceThreshold: 100
  m_SceneGUID: 00000000000000000000000000000000
  m_OcclusionCullingData: {fileID: 0}
--- !u!104 &2
RenderSettings:
  m_ObjectHideFlags: 0
  serializedVersion: 9
  m_Fog: 1
  m_FogColor: {r: 0.42075002, g: 0.8089786, b: 0.99, a: 1}
  m_FogMode: 1
  m_FogDensity: 0.005
  m_LinearFogStart: 0
  m_LinearFogEnd: 1000
  m_AmbientSkyColor: {r: 0.866, g: 0.977488, b: 1, a: 1}
  m_AmbientEquatorColor: {r: 0.114, g: 0.125, b: 0.133, a: 1}
  m_AmbientGroundColor: {r: 0.047, g: 0.043, b: 0.035, a: 1}
  m_AmbientIntensity: 1
  m_AmbientMode: 0
  m_SubtractiveShadowColor: {r: 0.42, g: 0.478, b: 0.627, a: 1}
  m_SkyboxMaterial: {fileID: 2100000, guid: 04695d24582b9fa46bc8b515a4d2b298, type: 2}
  m_HaloStrength: 0.5
  m_FlareStrength: 1
  m_FlareFadeSpeed: 3
  m_HaloTexture: {fileID: 0}
  m_SpotCookie: {fileID: 10001, guid: 0000000000000000e000000000000000, type: 0}
  m_DefaultReflectionMode: 0
  m_DefaultReflectionResolution: 256
  m_ReflectionBounces: 1
  m_ReflectionIntensity: 0.1
  m_CustomReflection: {fileID: 0}
  m_Sun: {fileID: 0}
  m_IndirectSpecularColor: {r: 0, g: 0, b: 0, a: 0.1}
  m_UseRadianceAmbientProbe: 0
--- !u!157 &4
LightmapSettings:
  m_ObjectHideFlags: 0
  serializedVersion: 12
  m_GIWorkflowMode: 0
  m_GISettings:
    serializedVersion: 2
    m_BounceScale: 1
    m_IndirectOutputScale: 1
    m_AlbedoBoost: 1
    m_EnvironmentLightingMode: 0
    m_EnableBakedLightmaps: 0
    m_EnableRealtimeLightmaps: 0
  m_LightmapEditorSettings:
    serializedVersion: 12
    m_Resolution: 2
    m_BakeResolution: 20
    m_AtlasSize: 1024
    m_AO: 0
    m_AOMaxDistance: 1
    m_CompAOExponent: 0
    m_CompAOExponentDirect: 0
    m_ExtractAmbientOcclusion: 0
    m_Padding: 4
    m_LightmapParameters: {fileID: 15203, guid: 0000000000000000f000000000000000, type: 0}
    m_LightmapsBakeMode: 0
    m_TextureCompression: 0
    m_FinalGather: 0
    m_FinalGatherFiltering: 1
    m_FinalGatherRayCount: 256
    m_ReflectionCompression: 2
    m_MixedBakeMode: 1
    m_BakeBackend: 0
    m_PVRSampling: 1
    m_PVRDirectSampleCount: 32
    m_PVRSampleCount: 512
    m_PVRBounces: 2
    m_PVREnvironmentSampleCount: 512
    m_PVREnvironmentReferencePointCount: 2048
    m_PVRFilteringMode: 0
    m_PVRDenoiserTypeDirect: 0
    m_PVRDenoiserTypeIndirect: 0
    m_PVRDenoiserTypeAO: 0
    m_PVRFilterTypeDirect: 0
    m_PVRFilterTypeIndirect: 0
    m_PVRFilterTypeAO: 0
    m_PVREnvironmentMIS: 0
    m_PVRCulling: 1
    m_PVRFilteringGaussRadiusDirect: 1
    m_PVRFilteringGaussRadiusIndirect: 5
    m_PVRFilteringGaussRadiusAO: 2
    m_PVRFilteringAtrousPositionSigmaDirect: 0.5
    m_PVRFilteringAtrousPositionSigmaIndirect: 2
    m_PVRFilteringAtrousPositionSigmaAO: 1
    m_ExportTrainingData: 0
    m_TrainingDataDestination: TrainingData
    m_LightProbeSampleCountMultiplier: 4
  m_LightingDataAsset: {fileID: 112000001, guid: 604bb26d9af981d46bbfa5fc8a7cbac2, type: 2}
  m_LightingSettings: {fileID: 4890085278179872738, guid: 63493f214eaf04cd7909908f0d2051a1, type: 2}
--- !u!196 &5
NavMeshSettings:
  serializedVersion: 2
  m_ObjectHideFlags: 0
  m_BuildSettings:
    serializedVersion: 2
    agentTypeID: 0
    agentRadius: 0.5
    agentHeight: 2
    agentSlope: 45
    agentClimb: 0.4
    ledgeDropHeight: 0
    maxJumpAcrossDistance: 0
    minRegionArea: 2
    manualCellSize: 0
    cellSize: 0.16666667
    manualTileSize: 0
    tileSize: 256
    accuratePlacement: 0
    maxJobWorkers: 0
    preserveTilesOutsideBounds: 0
    debug:
      m_Flags: 0
  m_NavMeshData: {fileID: 0}
--- !u!1 &231635104
GameObject:
  m_ObjectHideFlags: 0
  m_CorrespondingSourceObject: {fileID: 0}
  m_PrefabInstance: {fileID: 0}
  m_PrefabAsset: {fileID: 0}
  serializedVersion: 6
  m_Component:
  - component: {fileID: 231635105}
  - component: {fileID: 231635106}
  m_Layer: 8
  m_Name: Directional light_key_A
  m_TagString: Untagged
  m_Icon: {fileID: 0}
  m_NavMeshLayer: 0
  m_StaticEditorFlags: 0
  m_IsActive: 1
--- !u!4 &231635105
Transform:
  m_ObjectHideFlags: 0
  m_CorrespondingSourceObject: {fileID: 0}
  m_PrefabInstance: {fileID: 0}
  m_PrefabAsset: {fileID: 0}
  m_GameObject: {fileID: 231635104}
  m_LocalRotation: {x: -0.24905933, y: 0.73730254, z: -0.4712058, w: -0.41511384}
  m_LocalPosition: {x: 0.7439444, y: 1.3839526, z: -0.56332254}
  m_LocalScale: {x: 400.22903, y: 400.2291, z: 400.22906}
  m_Children: []
  m_Father: {fileID: 1863334503}
  m_RootOrder: 0
  m_LocalEulerAnglesHint: {x: 64.3716, y: -119.2419, z: 3.1734}
--- !u!108 &231635106
Light:
  m_ObjectHideFlags: 0
  m_CorrespondingSourceObject: {fileID: 0}
  m_PrefabInstance: {fileID: 0}
  m_PrefabAsset: {fileID: 0}
  m_GameObject: {fileID: 231635104}
  m_Enabled: 1
  serializedVersion: 10
  m_Type: 1
  m_Shape: 0
  m_Color: {r: 1, g: 1, b: 1, a: 1}
  m_Intensity: 2
  m_Range: 10
  m_SpotAngle: 30
  m_InnerSpotAngle: 21.802082
  m_CookieSize: 10
  m_Shadows:
    m_Type: 1
    m_Resolution: 2
    m_CustomResolution: -1
    m_Strength: 1
    m_Bias: 0.1
    m_NormalBias: 0
    m_NearPlane: 0.2
    m_CullingMatrixOverride:
      e00: 1
      e01: 0
      e02: 0
      e03: 0
      e10: 0
      e11: 1
      e12: 0
      e13: 0
      e20: 0
      e21: 0
      e22: 1
      e23: 0
      e30: 0
      e31: 0
      e32: 0
      e33: 1
    m_UseCullingMatrixOverride: 0
  m_Cookie: {fileID: 0}
  m_DrawHalo: 0
  m_Flare: {fileID: 0}
  m_RenderMode: 0
  m_CullingMask:
    serializedVersion: 2
    m_Bits: 4294967295
  m_RenderingLayerMask: 1
  m_Lightmapping: 4
  m_LightShadowCasterMode: 0
  m_AreaSize: {x: 1, y: 1}
  m_BounceIntensity: 1
  m_ColorTemperature: 6570
  m_UseColorTemperature: 0
  m_BoundingSphereOverride: {x: 0, y: 0, z: 0, w: 0}
  m_UseBoundingSphereOverride: 0
  m_UseViewFrustumForShadowCasterCull: 1
  m_ShadowRadius: 0
  m_ShadowAngle: 0
--- !u!1 &780586442
GameObject:
  m_ObjectHideFlags: 0
  m_CorrespondingSourceObject: {fileID: 0}
  m_PrefabInstance: {fileID: 0}
  m_PrefabAsset: {fileID: 0}
  serializedVersion: 6
  m_Component:
  - component: {fileID: 780586443}
  m_Layer: 8
  m_Name: lighting
  m_TagString: Untagged
  m_Icon: {fileID: 0}
  m_NavMeshLayer: 0
  m_StaticEditorFlags: 0
  m_IsActive: 1
--- !u!4 &780586443
Transform:
  m_ObjectHideFlags: 0
  m_CorrespondingSourceObject: {fileID: 0}
  m_PrefabInstance: {fileID: 0}
  m_PrefabAsset: {fileID: 0}
  m_GameObject: {fileID: 780586442}
  m_LocalRotation: {x: 0, y: 0, z: 0, w: 1}
  m_LocalPosition: {x: -134.01654, y: 23.704638, z: -74.13476}
  m_LocalScale: {x: 1, y: 1, z: 1}
  m_Children:
  - {fileID: 1863334503}
  m_Father: {fileID: 0}
  m_RootOrder: 2
  m_LocalEulerAnglesHint: {x: 0, y: 0, z: 0}
--- !u!1 &1571663309
GameObject:
  m_ObjectHideFlags: 0
  m_CorrespondingSourceObject: {fileID: 0}
  m_PrefabInstance: {fileID: 0}
  m_PrefabAsset: {fileID: 0}
  serializedVersion: 6
  m_Component:
  - component: {fileID: 1571663310}
  - component: {fileID: 1571663313}
  - component: {fileID: 1571663312}
  - component: {fileID: 1571663311}
  m_Layer: 0
  m_Name: Plane
  m_TagString: Untagged
  m_Icon: {fileID: 0}
  m_NavMeshLayer: 0
  m_StaticEditorFlags: 0
  m_IsActive: 1
--- !u!4 &1571663310
Transform:
  m_ObjectHideFlags: 0
  m_CorrespondingSourceObject: {fileID: 0}
  m_PrefabInstance: {fileID: 0}
  m_PrefabAsset: {fileID: 0}
  m_GameObject: {fileID: 1571663309}
  m_LocalRotation: {x: 0, y: 0, z: 0, w: 1}
  m_LocalPosition: {x: 67.2, y: 0, z: -20.5}
  m_LocalScale: {x: 80.13625, y: 80.136215, z: 151.84993}
  m_Children: []
  m_Father: {fileID: 1632855881}
  m_RootOrder: 4
  m_LocalEulerAnglesHint: {x: 0, y: 0, z: 0}
--- !u!23 &1571663311
MeshRenderer:
  m_ObjectHideFlags: 0
  m_CorrespondingSourceObject: {fileID: 0}
  m_PrefabInstance: {fileID: 0}
  m_PrefabAsset: {fileID: 0}
  m_GameObject: {fileID: 1571663309}
  m_Enabled: 1
  m_CastShadows: 1
  m_ReceiveShadows: 1
  m_DynamicOccludee: 1
  m_MotionVectors: 1
  m_LightProbeUsage: 1
  m_ReflectionProbeUsage: 1
  m_RayTracingMode: 2
  m_RayTraceProcedural: 0
  m_RenderingLayerMask: 1
  m_RendererPriority: 0
  m_Materials:
  - {fileID: 2100000, guid: bfacd1e4ee161e84da3934a4fcb87391, type: 2}
  m_StaticBatchInfo:
    firstSubMesh: 0
    subMeshCount: 0
  m_StaticBatchRoot: {fileID: 0}
  m_ProbeAnchor: {fileID: 0}
  m_LightProbeVolumeOverride: {fileID: 0}
  m_ScaleInLightmap: 1
  m_ReceiveGI: 1
  m_PreserveUVs: 1
  m_IgnoreNormalsForChartDetection: 0
  m_ImportantGI: 0
  m_StitchLightmapSeams: 1
  m_SelectedEditorRenderState: 3
  m_MinimumChartSize: 4
  m_AutoUVMaxDistance: 0.5
  m_AutoUVMaxAngle: 89
  m_LightmapParameters: {fileID: 0}
  m_SortingLayerID: 0
  m_SortingLayer: 0
  m_SortingOrder: 0
  m_AdditionalVertexStreams: {fileID: 0}
--- !u!64 &1571663312
MeshCollider:
  m_ObjectHideFlags: 0
  m_CorrespondingSourceObject: {fileID: 0}
  m_PrefabInstance: {fileID: 0}
  m_PrefabAsset: {fileID: 0}
  m_GameObject: {fileID: 1571663309}
  m_Material: {fileID: 0}
  m_IsTrigger: 0
  m_Enabled: 1
  serializedVersion: 4
  m_Convex: 0
  m_CookingOptions: 30
  m_Mesh: {fileID: 10209, guid: 0000000000000000e000000000000000, type: 0}
--- !u!33 &1571663313
MeshFilter:
  m_ObjectHideFlags: 0
  m_CorrespondingSourceObject: {fileID: 0}
  m_PrefabInstance: {fileID: 0}
  m_PrefabAsset: {fileID: 0}
  m_GameObject: {fileID: 1571663309}
  m_Mesh: {fileID: 10209, guid: 0000000000000000e000000000000000, type: 0}
--- !u!1001 &1632855880
PrefabInstance:
  m_ObjectHideFlags: 0
  serializedVersion: 2
  m_Modification:
    m_TransformParent: {fileID: 0}
    m_Modifications:
    - target: {fileID: 100002, guid: 002827ae41915cb4ab705371bc8c3adf, type: 3}
      propertyPath: m_IsActive
      value: 0
      objectReference: {fileID: 0}
    - target: {fileID: 100008, guid: 002827ae41915cb4ab705371bc8c3adf, type: 3}
      propertyPath: m_IsActive
      value: 0
      objectReference: {fileID: 0}
    - target: {fileID: 100010, guid: 002827ae41915cb4ab705371bc8c3adf, type: 3}
      propertyPath: m_IsActive
      value: 0
      objectReference: {fileID: 0}
    - target: {fileID: 100014, guid: 002827ae41915cb4ab705371bc8c3adf, type: 3}
      propertyPath: m_IsActive
      value: 0
      objectReference: {fileID: 0}
    - target: {fileID: 400000, guid: 002827ae41915cb4ab705371bc8c3adf, type: 3}
      propertyPath: m_RootOrder
      value: 3
      objectReference: {fileID: 0}
    - target: {fileID: 400000, guid: 002827ae41915cb4ab705371bc8c3adf, type: 3}
      propertyPath: m_LocalScale.x
      value: 0.7576965
      objectReference: {fileID: 0}
    - target: {fileID: 400000, guid: 002827ae41915cb4ab705371bc8c3adf, type: 3}
      propertyPath: m_LocalScale.y
      value: 0.7576967
      objectReference: {fileID: 0}
    - target: {fileID: 400000, guid: 002827ae41915cb4ab705371bc8c3adf, type: 3}
      propertyPath: m_LocalScale.z
      value: 0.7576967
      objectReference: {fileID: 0}
    - target: {fileID: 400000, guid: 002827ae41915cb4ab705371bc8c3adf, type: 3}
      propertyPath: m_LocalPosition.x
      value: 20.9
      objectReference: {fileID: 0}
    - target: {fileID: 400000, guid: 002827ae41915cb4ab705371bc8c3adf, type: 3}
      propertyPath: m_LocalPosition.y
      value: 8.3
      objectReference: {fileID: 0}
    - target: {fileID: 400000, guid: 002827ae41915cb4ab705371bc8c3adf, type: 3}
      propertyPath: m_LocalPosition.z
      value: -5.7
      objectReference: {fileID: 0}
    - target: {fileID: 400000, guid: 002827ae41915cb4ab705371bc8c3adf, type: 3}
      propertyPath: m_LocalRotation.w
      value: 1
      objectReference: {fileID: 0}
    - target: {fileID: 400000, guid: 002827ae41915cb4ab705371bc8c3adf, type: 3}
      propertyPath: m_LocalRotation.x
      value: 0
      objectReference: {fileID: 0}
    - target: {fileID: 400000, guid: 002827ae41915cb4ab705371bc8c3adf, type: 3}
      propertyPath: m_LocalRotation.y
      value: 0
      objectReference: {fileID: 0}
    - target: {fileID: 400000, guid: 002827ae41915cb4ab705371bc8c3adf, type: 3}
      propertyPath: m_LocalRotation.z
      value: 0
      objectReference: {fileID: 0}
    - target: {fileID: 400002, guid: 002827ae41915cb4ab705371bc8c3adf, type: 3}
      propertyPath: m_LocalScale.x
      value: 9.031091
      objectReference: {fileID: 0}
    - target: {fileID: 400002, guid: 002827ae41915cb4ab705371bc8c3adf, type: 3}
      propertyPath: m_LocalScale.y
      value: 9.031091
      objectReference: {fileID: 0}
    - target: {fileID: 400002, guid: 002827ae41915cb4ab705371bc8c3adf, type: 3}
      propertyPath: m_LocalScale.z
      value: 9.031091
      objectReference: {fileID: 0}
    - target: {fileID: 400002, guid: 002827ae41915cb4ab705371bc8c3adf, type: 3}
      propertyPath: m_LocalPosition.x
      value: 101.7
      objectReference: {fileID: 0}
    - target: {fileID: 400002, guid: 002827ae41915cb4ab705371bc8c3adf, type: 3}
      propertyPath: m_LocalPosition.y
      value: 28.100002
      objectReference: {fileID: 0}
    - target: {fileID: 400002, guid: 002827ae41915cb4ab705371bc8c3adf, type: 3}
      propertyPath: m_LocalPosition.z
      value: 47.59999
      objectReference: {fileID: 0}
    - target: {fileID: 400002, guid: 002827ae41915cb4ab705371bc8c3adf, type: 3}
      propertyPath: m_LocalRotation.w
      value: 0.70710665
      objectReference: {fileID: 0}
    - target: {fileID: 400002, guid: 002827ae41915cb4ab705371bc8c3adf, type: 3}
      propertyPath: m_LocalRotation.z
      value: -0.707107
      objectReference: {fileID: 0}
    - target: {fileID: 400002, guid: 002827ae41915cb4ab705371bc8c3adf, type: 3}
      propertyPath: m_LocalEulerAnglesHint.z
      value: -90
      objectReference: {fileID: 0}
    - target: {fileID: 400004, guid: 002827ae41915cb4ab705371bc8c3adf, type: 3}
      propertyPath: m_LocalScale.x
      value: 2.305399
      objectReference: {fileID: 0}
    - target: {fileID: 400004, guid: 002827ae41915cb4ab705371bc8c3adf, type: 3}
      propertyPath: m_LocalScale.y
      value: 20.145058
      objectReference: {fileID: 0}
    - target: {fileID: 400004, guid: 002827ae41915cb4ab705371bc8c3adf, type: 3}
      propertyPath: m_LocalScale.z
      value: 2.3053994
      objectReference: {fileID: 0}
    - target: {fileID: 400004, guid: 002827ae41915cb4ab705371bc8c3adf, type: 3}
      propertyPath: m_LocalPosition.x
      value: 100.3
      objectReference: {fileID: 0}
    - target: {fileID: 400004, guid: 002827ae41915cb4ab705371bc8c3adf, type: 3}
      propertyPath: m_LocalPosition.y
      value: 16.268
      objectReference: {fileID: 0}
    - target: {fileID: 400004, guid: 002827ae41915cb4ab705371bc8c3adf, type: 3}
      propertyPath: m_LocalPosition.z
      value: 0.2
      objectReference: {fileID: 0}
    - target: {fileID: 400008, guid: 002827ae41915cb4ab705371bc8c3adf, type: 3}
      propertyPath: m_LocalScale.x
      value: 2.8679245
      objectReference: {fileID: 0}
    - target: {fileID: 400008, guid: 002827ae41915cb4ab705371bc8c3adf, type: 3}
      propertyPath: m_LocalScale.y
      value: 1.5578232
      objectReference: {fileID: 0}
    - target: {fileID: 400008, guid: 002827ae41915cb4ab705371bc8c3adf, type: 3}
      propertyPath: m_LocalScale.z
      value: 2.8679252
      objectReference: {fileID: 0}
    - target: {fileID: 400008, guid: 002827ae41915cb4ab705371bc8c3adf, type: 3}
      propertyPath: m_LocalPosition.x
      value: -6.2
      objectReference: {fileID: 0}
    - target: {fileID: 400008, guid: 002827ae41915cb4ab705371bc8c3adf, type: 3}
      propertyPath: m_LocalPosition.y
      value: 44.9
      objectReference: {fileID: 0}
    - target: {fileID: 400008, guid: 002827ae41915cb4ab705371bc8c3adf, type: 3}
      propertyPath: m_LocalPosition.z
      value: 12.4
      objectReference: {fileID: 0}
    - target: {fileID: 400010, guid: 002827ae41915cb4ab705371bc8c3adf, type: 3}
      propertyPath: m_LocalScale.x
      value: 2.3249457
      objectReference: {fileID: 0}
    - target: {fileID: 400010, guid: 002827ae41915cb4ab705371bc8c3adf, type: 3}
      propertyPath: m_LocalScale.y
      value: 1.2855551
      objectReference: {fileID: 0}
    - target: {fileID: 400010, guid: 002827ae41915cb4ab705371bc8c3adf, type: 3}
      propertyPath: m_LocalScale.z
      value: 2.3249462
      objectReference: {fileID: 0}
    - target: {fileID: 400010, guid: 002827ae41915cb4ab705371bc8c3adf, type: 3}
      propertyPath: m_LocalPosition.x
      value: 35.9
      objectReference: {fileID: 0}
    - target: {fileID: 400010, guid: 002827ae41915cb4ab705371bc8c3adf, type: 3}
      propertyPath: m_LocalPosition.y
      value: 44.4
      objectReference: {fileID: 0}
    - target: {fileID: 400010, guid: 002827ae41915cb4ab705371bc8c3adf, type: 3}
      propertyPath: m_LocalPosition.z
      value: 12.6
      objectReference: {fileID: 0}
    - target: {fileID: 2300000, guid: 002827ae41915cb4ab705371bc8c3adf, type: 3}
      propertyPath: m_Materials.Array.data[0]
      value: 
      objectReference: {fileID: 2100000, guid: bd5d6be1676fa0f4c9b927659be55ae0, type: 2}
    - target: {fileID: 2300002, guid: 002827ae41915cb4ab705371bc8c3adf, type: 3}
      propertyPath: m_Materials.Array.size
      value: 1
      objectReference: {fileID: 0}
    - target: {fileID: 2300002, guid: 002827ae41915cb4ab705371bc8c3adf, type: 3}
      propertyPath: m_Materials.Array.data[0]
      value: 
      objectReference: {fileID: 2100000, guid: bfacd1e4ee161e84da3934a4fcb87391, type: 2}
    - target: {fileID: 2300002, guid: 002827ae41915cb4ab705371bc8c3adf, type: 3}
      propertyPath: m_Materials.Array.data[1]
      value: 
      objectReference: {fileID: 2100000, guid: bfacd1e4ee161e84da3934a4fcb87391, type: 2}
    - target: {fileID: 2300006, guid: 002827ae41915cb4ab705371bc8c3adf, type: 3}
      propertyPath: m_Materials.Array.data[0]
      value: 
      objectReference: {fileID: 2100000, guid: bd5d6be1676fa0f4c9b927659be55ae0, type: 2}
    - target: {fileID: 2300008, guid: 002827ae41915cb4ab705371bc8c3adf, type: 3}
      propertyPath: m_Materials.Array.data[0]
      value: 
      objectReference: {fileID: 2100000, guid: bd5d6be1676fa0f4c9b927659be55ae0, type: 2}
    m_RemovedComponents: []
  m_SourcePrefab: {fileID: 100100000, guid: 002827ae41915cb4ab705371bc8c3adf, type: 3}
--- !u!4 &1632855881 stripped
Transform:
  m_CorrespondingSourceObject: {fileID: 400000, guid: 002827ae41915cb4ab705371bc8c3adf, type: 3}
  m_PrefabInstance: {fileID: 1632855880}
  m_PrefabAsset: {fileID: 0}
--- !u!1 &1845190209
GameObject:
  m_ObjectHideFlags: 0
  m_CorrespondingSourceObject: {fileID: 0}
  m_PrefabInstance: {fileID: 0}
  m_PrefabAsset: {fileID: 0}
  serializedVersion: 6
  m_Component:
  - component: {fileID: 1845190214}
  - component: {fileID: 1845190213}
  - component: {fileID: 1845190211}
  - component: {fileID: 1845190210}
  m_Layer: 0
  m_Name: Main Camera
  m_TagString: MainCamera
  m_Icon: {fileID: 0}
  m_NavMeshLayer: 0
  m_StaticEditorFlags: 0
  m_IsActive: 0
--- !u!81 &1845190210
AudioListener:
  m_ObjectHideFlags: 0
  m_CorrespondingSourceObject: {fileID: 0}
  m_PrefabInstance: {fileID: 0}
  m_PrefabAsset: {fileID: 0}
  m_GameObject: {fileID: 1845190209}
  m_Enabled: 1
--- !u!124 &1845190211
Behaviour:
  m_ObjectHideFlags: 0
  m_CorrespondingSourceObject: {fileID: 0}
  m_PrefabInstance: {fileID: 0}
  m_PrefabAsset: {fileID: 0}
  m_GameObject: {fileID: 1845190209}
  m_Enabled: 1
--- !u!20 &1845190213
Camera:
  m_ObjectHideFlags: 0
  m_CorrespondingSourceObject: {fileID: 0}
  m_PrefabInstance: {fileID: 0}
  m_PrefabAsset: {fileID: 0}
  m_GameObject: {fileID: 1845190209}
  m_Enabled: 1
  serializedVersion: 2
  m_ClearFlags: 1
  m_BackGroundColor: {r: 0.19215687, g: 0.3019608, b: 0.4745098, a: 0.019607844}
  m_projectionMatrixMode: 1
  m_GateFitMode: 2
  m_FOVAxisMode: 0
  m_SensorSize: {x: 36, y: 24}
  m_LensShift: {x: 0, y: 0}
  m_FocalLength: 50
  m_NormalizedViewPortRect:
    serializedVersion: 2
    x: 0
    y: 0
    width: 1
    height: 1
  near clip plane: 0.3
  far clip plane: 1000
  field of view: 60
  orthographic: 0
  orthographic size: 5
  m_Depth: -1
  m_CullingMask:
    serializedVersion: 2
    m_Bits: 4294967295
  m_RenderingPath: -1
  m_TargetTexture: {fileID: 0}
  m_TargetDisplay: 0
  m_TargetEye: 3
  m_HDR: 1
  m_AllowMSAA: 1
  m_AllowDynamicResolution: 0
  m_ForceIntoRT: 0
  m_OcclusionCulling: 1
  m_StereoConvergence: 10
  m_StereoSeparation: 0.022
--- !u!4 &1845190214
Transform:
  m_ObjectHideFlags: 0
  m_CorrespondingSourceObject: {fileID: 0}
  m_PrefabInstance: {fileID: 0}
  m_PrefabAsset: {fileID: 0}
  m_GameObject: {fileID: 1845190209}
  m_LocalRotation: {x: 0.10500293, y: 0.6992669, z: -0.1050029, w: 0.6992672}
  m_LocalPosition: {x: -94.07, y: 30.59, z: 96.93}
  m_LocalScale: {x: 1, y: 1, z: 1}
  m_Children: []
  m_Father: {fileID: 0}
  m_RootOrder: 0
  m_LocalEulerAnglesHint: {x: 17.0796, y: 90, z: 0}
--- !u!1 &1863334502
GameObject:
  m_ObjectHideFlags: 0
  m_CorrespondingSourceObject: {fileID: 0}
  m_PrefabInstance: {fileID: 0}
  m_PrefabAsset: {fileID: 0}
  serializedVersion: 6
  m_Component:
  - component: {fileID: 1863334503}
  m_Layer: 8
  m_Name: light_setup_A
  m_TagString: Untagged
  m_Icon: {fileID: 0}
  m_NavMeshLayer: 0
  m_StaticEditorFlags: 0
  m_IsActive: 1
--- !u!4 &1863334503
Transform:
  m_ObjectHideFlags: 0
  m_CorrespondingSourceObject: {fileID: 0}
  m_PrefabInstance: {fileID: 0}
  m_PrefabAsset: {fileID: 0}
  m_GameObject: {fileID: 1863334502}
  m_LocalRotation: {x: 0, y: 0, z: 0, w: 1}
  m_LocalPosition: {x: 131.17262, y: -25.088589, z: 80.75808}
  m_LocalScale: {x: 1, y: 1, z: 1}
  m_Children:
  - {fileID: 231635105}
  - {fileID: 2101317892}
  m_Father: {fileID: 780586443}
  m_RootOrder: 0
  m_LocalEulerAnglesHint: {x: 0, y: 0, z: 0}
--- !u!1 &1893015146
GameObject:
  m_ObjectHideFlags: 0
  m_CorrespondingSourceObject: {fileID: 100004, guid: 002827ae41915cb4ab705371bc8c3adf, type: 3}
  m_PrefabInstance: {fileID: 0}
  m_PrefabAsset: {fileID: 0}
  serializedVersion: 6
  m_Component:
  - component: {fileID: 1893015147}
  - component: {fileID: 1893015149}
  - component: {fileID: 1893015148}
  m_Layer: 0
  m_Name: Rock_ground_fog (1)
  m_TagString: Untagged
  m_Icon: {fileID: 0}
  m_NavMeshLayer: 0
  m_StaticEditorFlags: 0
  m_IsActive: 1
--- !u!4 &1893015147
Transform:
  m_ObjectHideFlags: 0
  m_CorrespondingSourceObject: {fileID: 400004, guid: 002827ae41915cb4ab705371bc8c3adf, type: 3}
  m_PrefabInstance: {fileID: 0}
  m_PrefabAsset: {fileID: 0}
  m_GameObject: {fileID: 1893015146}
  m_LocalRotation: {x: 0, y: 0, z: 0, w: 1}
  m_LocalPosition: {x: 100.3, y: 33.5, z: 0.2}
  m_LocalScale: {x: 1.6218417, y: 8.017401, z: 1.621842}
  m_Children: []
  m_Father: {fileID: 1632855881}
  m_RootOrder: 5
  m_LocalEulerAnglesHint: {x: 0, y: 0, z: 0}
--- !u!23 &1893015148
MeshRenderer:
  m_ObjectHideFlags: 0
  m_CorrespondingSourceObject: {fileID: 2300002, guid: 002827ae41915cb4ab705371bc8c3adf, type: 3}
  m_PrefabInstance: {fileID: 0}
  m_PrefabAsset: {fileID: 0}
  m_GameObject: {fileID: 1893015146}
  m_Enabled: 1
  m_CastShadows: 1
  m_ReceiveShadows: 1
  m_DynamicOccludee: 1
  m_MotionVectors: 1
  m_LightProbeUsage: 1
  m_ReflectionProbeUsage: 1
  m_RayTracingMode: 2
  m_RayTraceProcedural: 0
  m_RenderingLayerMask: 1
  m_RendererPriority: 0
  m_Materials:
  - {fileID: 2100000, guid: bfacd1e4ee161e84da3934a4fcb87391, type: 2}
  m_StaticBatchInfo:
    firstSubMesh: 0
    subMeshCount: 0
  m_StaticBatchRoot: {fileID: 0}
  m_ProbeAnchor: {fileID: 0}
  m_LightProbeVolumeOverride: {fileID: 0}
  m_ScaleInLightmap: 1
  m_ReceiveGI: 1
  m_PreserveUVs: 0
  m_IgnoreNormalsForChartDetection: 0
  m_ImportantGI: 0
  m_StitchLightmapSeams: 1
  m_SelectedEditorRenderState: 3
  m_MinimumChartSize: 4
  m_AutoUVMaxDistance: 0.5
  m_AutoUVMaxAngle: 89
  m_LightmapParameters: {fileID: 0}
  m_SortingLayerID: 0
  m_SortingLayer: 0
  m_SortingOrder: 0
  m_AdditionalVertexStreams: {fileID: 0}
--- !u!33 &1893015149
MeshFilter:
  m_ObjectHideFlags: 0
  m_CorrespondingSourceObject: {fileID: 3300002, guid: 002827ae41915cb4ab705371bc8c3adf, type: 3}
  m_PrefabInstance: {fileID: 0}
  m_PrefabAsset: {fileID: 0}
  m_GameObject: {fileID: 1893015146}
  m_Mesh: {fileID: 4300000, guid: 002827ae41915cb4ab705371bc8c3adf, type: 3}
--- !u!1 &2045995837
GameObject:
  m_ObjectHideFlags: 0
  m_CorrespondingSourceObject: {fileID: 0}
  m_PrefabInstance: {fileID: 0}
  m_PrefabAsset: {fileID: 0}
  serializedVersion: 6
  m_Component:
  - component: {fileID: 2045995838}
  - component: {fileID: 2045995842}
  - component: {fileID: 2045995840}
  - component: {fileID: 2045995839}
  - component: {fileID: 2045995843}
  - component: {fileID: 2045995844}
  m_Layer: 0
  m_Name: PrimaryCamera
  m_TagString: MainCamera
  m_Icon: {fileID: 0}
  m_NavMeshLayer: 0
  m_StaticEditorFlags: 0
  m_IsActive: 1
--- !u!4 &2045995838
Transform:
  m_ObjectHideFlags: 0
  m_CorrespondingSourceObject: {fileID: 0}
  m_PrefabInstance: {fileID: 0}
  m_PrefabAsset: {fileID: 0}
  m_GameObject: {fileID: 2045995837}
  m_LocalRotation: {x: -0.0476, y: 0.956632, z: -0.19884385, w: -0.20748645}
  m_LocalPosition: {x: 152, y: 96.5, z: 112.9}
  m_LocalScale: {x: 1, y: 1, z: 1}
  m_Children: []
  m_Father: {fileID: 0}
  m_RootOrder: 1
  m_LocalEulerAnglesHint: {x: 23.5903, y: 204.3633, z: -0.53499997}
--- !u!81 &2045995839
AudioListener:
  m_ObjectHideFlags: 0
  m_CorrespondingSourceObject: {fileID: 0}
  m_PrefabInstance: {fileID: 0}
  m_PrefabAsset: {fileID: 0}
  m_GameObject: {fileID: 2045995837}
  m_Enabled: 1
--- !u!124 &2045995840
Behaviour:
  m_ObjectHideFlags: 0
  m_CorrespondingSourceObject: {fileID: 0}
  m_PrefabInstance: {fileID: 0}
  m_PrefabAsset: {fileID: 0}
  m_GameObject: {fileID: 2045995837}
  m_Enabled: 1
--- !u!20 &2045995842
Camera:
  m_ObjectHideFlags: 0
  m_CorrespondingSourceObject: {fileID: 0}
  m_PrefabInstance: {fileID: 0}
  m_PrefabAsset: {fileID: 0}
  m_GameObject: {fileID: 2045995837}
  m_Enabled: 1
  serializedVersion: 2
  m_ClearFlags: 1
  m_BackGroundColor: {r: 0, g: 0, b: 0, a: 0.019607844}
  m_projectionMatrixMode: 1
  m_GateFitMode: 2
  m_FOVAxisMode: 0
  m_SensorSize: {x: 36, y: 24}
  m_LensShift: {x: 0, y: 0}
  m_FocalLength: 50
  m_NormalizedViewPortRect:
    serializedVersion: 2
    x: 0
    y: 0
    width: 1
    height: 1
  near clip plane: 0.3
  far clip plane: 4000
  field of view: 24
  orthographic: 0
  orthographic size: 66
  m_Depth: -1
  m_CullingMask:
    serializedVersion: 2
    m_Bits: 4294967295
  m_RenderingPath: -1
  m_TargetTexture: {fileID: 0}
  m_TargetDisplay: 0
  m_TargetEye: 3
  m_HDR: 1
  m_AllowMSAA: 1
  m_AllowDynamicResolution: 0
  m_ForceIntoRT: 0
  m_OcclusionCulling: 1
  m_StereoConvergence: 10
  m_StereoSeparation: 0.022
--- !u!114 &2045995843
MonoBehaviour:
  m_ObjectHideFlags: 0
  m_CorrespondingSourceObject: {fileID: 0}
  m_PrefabInstance: {fileID: 0}
  m_PrefabAsset: {fileID: 0}
  m_GameObject: {fileID: 2045995837}
  m_Enabled: 1
  m_EditorHideFlags: 0
  m_Script: {fileID: 11500000, guid: dd6d4281e5d7cd44d8c6e38bc2c1b8d8, type: 3}
  m_Name: 
  m_EditorClassIdentifier: 
  mode: 0
  intensity: 0.15
  chromaticAberration: 1
  axialAberration: 0.5
  blur: 0
  blurSpread: 1
  luminanceDependency: 0.25
  blurDistance: 2.5
  vignetteShader: {fileID: 4800000, guid: 627943dc7a9a74286b70a4f694a0acd5, type: 3}
  separableBlurShader: {fileID: 4800000, guid: e97c14fbb5ea04c3a902cc533d7fc5d1, type: 3}
  chromAberrationShader: {fileID: 4800000, guid: 2b4f29398d9484ccfa9fd220449f5eee, type: 3}
--- !u!114 &2045995844
MonoBehaviour:
  m_ObjectHideFlags: 0
  m_CorrespondingSourceObject: {fileID: 0}
  m_PrefabInstance: {fileID: 0}
  m_PrefabAsset: {fileID: 0}
  m_GameObject: {fileID: 2045995837}
  m_Enabled: 1
  m_EditorHideFlags: 0
  m_Script: {fileID: 11500000, guid: 7fceaeb339b971b429c4cc600acabd13, type: 3}
  m_Name: 
  m_EditorClassIdentifier: 
  tweakMode: 1
  screenBlendMode: 1
  hdr: 1
  sepBlurSpread: 5.97
  quality: 1
  bloomIntensity: 0.2
  bloomThreshold: 0.46
  bloomThresholdColor:
    r: 0.6965518
    g: 1
    b: 0
    a: 1
  bloomBlurIterations: 3
  hollywoodFlareBlurIterations: 1
  flareRotation: 0
  lensflareMode: 1
  hollyStretchWidth: 6.68
  lensflareIntensity: 0
  lensflareThreshold: 0.3
  lensFlareSaturation: 0.75
  flareColorA:
    r: 0.6128
    g: 0.6128
    b: 0.8
    a: 0.75
  flareColorB:
    r: 0.4
    g: 0.8
    b: 0.8
    a: 0.75
  flareColorC:
    r: 0.8
    g: 0.4
    b: 0.8
    a: 0.75
  flareColorD:
    r: 0.8
    g: 0.4
    b: 0
    a: 0.75
  lensFlareVignetteMask: {fileID: 2800000, guid: 95ef4804fe0be4c999ddaa383536cde8, type: 3}
  lensFlareShader: {fileID: 4800000, guid: 459fe69d2f6d74ddb92f04dbf45a866b, type: 3}
  screenBlendShader: {fileID: 4800000, guid: 7856cbff0a0ca45c787d5431eb805bb0, type: 3}
  blurAndFlaresShader: {fileID: 4800000, guid: be6e39cf196f146d5be72fbefb18ed75, type: 3}
  brightPassFilterShader: {fileID: 4800000, guid: 0aeaa4cb29f5d4e9c8455f04c8575c8c, type: 3}
--- !u!1 &2101317891
GameObject:
  m_ObjectHideFlags: 0
  m_CorrespondingSourceObject: {fileID: 0}
  m_PrefabInstance: {fileID: 0}
  m_PrefabAsset: {fileID: 0}
  serializedVersion: 6
  m_Component:
  - component: {fileID: 2101317892}
  - component: {fileID: 2101317893}
  m_Layer: 8
  m_Name: Directional light_fill
  m_TagString: Untagged
  m_Icon: {fileID: 0}
  m_NavMeshLayer: 0
  m_StaticEditorFlags: 0
  m_IsActive: 1
--- !u!4 &2101317892
Transform:
  m_ObjectHideFlags: 0
  m_CorrespondingSourceObject: {fileID: 0}
  m_PrefabInstance: {fileID: 0}
  m_PrefabAsset: {fileID: 0}
  m_GameObject: {fileID: 2101317891}
  m_LocalRotation: {x: -0.35773692, y: -0.32928523, z: 0.13084964, w: -0.86398727}
  m_LocalPosition: {x: -28.156055, y: 5.7836957, z: -14.983322}
  m_LocalScale: {x: 373.21893, y: 373.219, z: 373.21893}
  m_Children: []
  m_Father: {fileID: 1863334503}
  m_RootOrder: 1
  m_LocalEulerAnglesHint: {x: 44.7758, y: 42.0415, z: 0.766}
--- !u!108 &2101317893
Light:
  m_ObjectHideFlags: 0
  m_CorrespondingSourceObject: {fileID: 0}
  m_PrefabInstance: {fileID: 0}
  m_PrefabAsset: {fileID: 0}
  m_GameObject: {fileID: 2101317891}
  m_Enabled: 1
  serializedVersion: 10
  m_Type: 1
  m_Shape: 0
  m_Color: {r: 1, g: 1, b: 1, a: 1}
  m_Intensity: 0.6
  m_Range: 10
  m_SpotAngle: 30
  m_InnerSpotAngle: 21.802082
  m_CookieSize: 10
  m_Shadows:
    m_Type: 0
    m_Resolution: -1
    m_CustomResolution: -1
    m_Strength: 1
    m_Bias: 0.05
    m_NormalBias: 0.4
    m_NearPlane: 0.2
    m_CullingMatrixOverride:
      e00: 1
      e01: 0
      e02: 0
      e03: 0
      e10: 0
      e11: 1
      e12: 0
      e13: 0
      e20: 0
      e21: 0
      e22: 1
      e23: 0
      e30: 0
      e31: 0
      e32: 0
      e33: 1
    m_UseCullingMatrixOverride: 0
  m_Cookie: {fileID: 0}
  m_DrawHalo: 0
  m_Flare: {fileID: 0}
  m_RenderMode: 0
  m_CullingMask:
    serializedVersion: 2
    m_Bits: 4294967295
  m_RenderingLayerMask: 1
  m_Lightmapping: 2
  m_LightShadowCasterMode: 0
  m_AreaSize: {x: 1, y: 1}
  m_BounceIntensity: 0
  m_ColorTemperature: 6570
  m_UseColorTemperature: 0
  m_BoundingSphereOverride: {x: 0, y: 0, z: 0, w: 0}
  m_UseBoundingSphereOverride: 0
  m_UseViewFrustumForShadowCasterCull: 1
  m_ShadowRadius: 0
  m_ShadowAngle: 0
