%YAML 1.1
%TAG !u! tag:unity3d.com,2011:
--- !u!29 &1
OcclusionCullingSettings:
  m_ObjectHideFlags: 0
  serializedVersion: 2
  m_OcclusionBakeSettings:
    smallestOccluder: 5
    smallestHole: 0.25
    backfaceThreshold: 100
  m_SceneGUID: 00000000000000000000000000000000
  m_OcclusionCullingData: {fileID: 0}
--- !u!104 &2
RenderSettings:
  m_ObjectHideFlags: 0
  serializedVersion: 9
  m_Fog: 0
  m_FogColor: {r: 0, g: 0, b: 0, a: 1}
  m_FogMode: 2
  m_FogDensity: 0.011
  m_LinearFogStart: 50
  m_LinearFogEnd: 600
  m_AmbientSkyColor: {r: 0.48496, g: 0.54739326, b: 0.56, a: 0.56}
  m_AmbientEquatorColor: {r: 0.06384, g: 0.07, b: 0.074480005, a: 0.56}
  m_AmbientGroundColor: {r: 0.02632, g: 0.02408, b: 0.0196, a: 0.56}
  m_AmbientIntensity: 0.56
  m_AmbientMode: 0
  m_SubtractiveShadowColor: {r: 0.42, g: 0.478, b: 0.627, a: 1}
  m_SkyboxMaterial: {fileID: 2100000, guid: 31eeb54e961bdcc43b7d84692200fa20, type: 2}
  m_HaloStrength: 0.5
  m_FlareStrength: 1
  m_FlareFadeSpeed: 3
  m_HaloTexture: {fileID: 0}
  m_SpotCookie: {fileID: 10001, guid: 0000000000000000e000000000000000, type: 0}
  m_DefaultReflectionMode: 0
  m_DefaultReflectionResolution: 256
  m_ReflectionBounces: 1
  m_ReflectionIntensity: 1
  m_CustomReflection: {fileID: 0}
  m_Sun: {fileID: 0}
  m_IndirectSpecularColor: {r: 0, g: 0, b: 0, a: 1}
  m_UseRadianceAmbientProbe: 0
--- !u!157 &4
LightmapSettings:
  m_ObjectHideFlags: 0
  serializedVersion: 12
  m_GIWorkflowMode: 0
  m_GISettings:
    serializedVersion: 2
    m_BounceScale: 1
    m_IndirectOutputScale: 1
    m_AlbedoBoost: 1
    m_EnvironmentLightingMode: 0
    m_EnableBakedLightmaps: 0
    m_EnableRealtimeLightmaps: 0
  m_LightmapEditorSettings:
    serializedVersion: 12
    m_Resolution: 2
    m_BakeResolution: 20
    m_AtlasSize: 1024
    m_AO: 0
    m_AOMaxDistance: 1
    m_CompAOExponent: 0
    m_CompAOExponentDirect: 0
    m_ExtractAmbientOcclusion: 0
    m_Padding: 4
    m_LightmapParameters: {fileID: 15203, guid: 0000000000000000f000000000000000, type: 0}
    m_LightmapsBakeMode: 0
    m_TextureCompression: 0
    m_FinalGather: 0
    m_FinalGatherFiltering: 1
    m_FinalGatherRayCount: 256
    m_ReflectionCompression: 2
    m_MixedBakeMode: 1
    m_BakeBackend: 0
    m_PVRSampling: 1
    m_PVRDirectSampleCount: 32
    m_PVRSampleCount: 512
    m_PVRBounces: 2
    m_PVREnvironmentSampleCount: 512
    m_PVREnvironmentReferencePointCount: 2048
    m_PVRFilteringMode: 0
    m_PVRDenoiserTypeDirect: 0
    m_PVRDenoiserTypeIndirect: 0
    m_PVRDenoiserTypeAO: 0
    m_PVRFilterTypeDirect: 0
    m_PVRFilterTypeIndirect: 0
    m_PVRFilterTypeAO: 0
    m_PVREnvironmentMIS: 0
    m_PVRCulling: 1
    m_PVRFilteringGaussRadiusDirect: 1
    m_PVRFilteringGaussRadiusIndirect: 5
    m_PVRFilteringGaussRadiusAO: 2
    m_PVRFilteringAtrousPositionSigmaDirect: 0.5
    m_PVRFilteringAtrousPositionSigmaIndirect: 2
    m_PVRFilteringAtrousPositionSigmaAO: 1
    m_ExportTrainingData: 0
    m_TrainingDataDestination: TrainingData
    m_LightProbeSampleCountMultiplier: 4
  m_LightingDataAsset: {fileID: 112000001, guid: 604bb26d9af981d46bbfa5fc8a7cbac2, type: 2}
  m_LightingSettings: {fileID: 4890085278179872738, guid: 87c316866b3d4467f934497acd3c880d, type: 2}
--- !u!196 &5
NavMeshSettings:
  serializedVersion: 2
  m_ObjectHideFlags: 0
  m_BuildSettings:
    serializedVersion: 2
    agentTypeID: 0
    agentRadius: 0.5
    agentHeight: 2
    agentSlope: 45
    agentClimb: 0.4
    ledgeDropHeight: 0
    maxJumpAcrossDistance: 0
    minRegionArea: 2
    manualCellSize: 0
    cellSize: 0.16666667
    manualTileSize: 0
    tileSize: 256
    accuratePlacement: 0
    maxJobWorkers: 0
    preserveTilesOutsideBounds: 0
    debug:
      m_Flags: 0
  m_NavMeshData: {fileID: 0}
--- !u!1 &1015704714
GameObject:
  m_ObjectHideFlags: 0
  m_CorrespondingSourceObject: {fileID: 0}
  m_PrefabInstance: {fileID: 0}
  m_PrefabAsset: {fileID: 0}
  serializedVersion: 6
  m_Component:
  - component: {fileID: 1015704715}
  - component: {fileID: 1015704716}
  m_Layer: 8
  m_Name: Directional light_key_A
  m_TagString: Untagged
  m_Icon: {fileID: 0}
  m_NavMeshLayer: 0
  m_StaticEditorFlags: 0
  m_IsActive: 1
--- !u!4 &1015704715
Transform:
  m_ObjectHideFlags: 0
  m_CorrespondingSourceObject: {fileID: 0}
  m_PrefabInstance: {fileID: 0}
  m_PrefabAsset: {fileID: 0}
  m_GameObject: {fileID: 1015704714}
  m_LocalRotation: {x: -0.24905933, y: 0.73730254, z: -0.4712058, w: -0.41511384}
  m_LocalPosition: {x: 0.7439444, y: 1.3839526, z: -0.56332254}
  m_LocalScale: {x: 400.22903, y: 400.2291, z: 400.22906}
  m_Children: []
  m_Father: {fileID: 1559983297}
  m_RootOrder: 0
  m_LocalEulerAnglesHint: {x: 64.3716, y: -119.2419, z: 3.1734}
--- !u!108 &1015704716
Light:
  m_ObjectHideFlags: 0
  m_CorrespondingSourceObject: {fileID: 0}
  m_PrefabInstance: {fileID: 0}
  m_PrefabAsset: {fileID: 0}
  m_GameObject: {fileID: 1015704714}
  m_Enabled: 1
  serializedVersion: 10
  m_Type: 1
  m_Shape: 0
  m_Color: {r: 1, g: 1, b: 1, a: 1}
  m_Intensity: 1.3
  m_Range: 10
  m_SpotAngle: 30
  m_InnerSpotAngle: 21.802082
  m_CookieSize: 10
  m_Shadows:
    m_Type: 1
    m_Resolution: 2
    m_CustomResolution: -1
    m_Strength: 0
    m_Bias: 2
    m_NormalBias: 0
    m_NearPlane: 1.39
    m_CullingMatrixOverride:
      e00: 1
      e01: 0
      e02: 0
      e03: 0
      e10: 0
      e11: 1
      e12: 0
      e13: 0
      e20: 0
      e21: 0
      e22: 1
      e23: 0
      e30: 0
      e31: 0
      e32: 0
      e33: 1
    m_UseCullingMatrixOverride: 0
  m_Cookie: {fileID: 0}
  m_DrawHalo: 0
  m_Flare: {fileID: 0}
  m_RenderMode: 0
  m_CullingMask:
    serializedVersion: 2
    m_Bits: 4294967295
  m_RenderingLayerMask: 1
  m_Lightmapping: 4
  m_LightShadowCasterMode: 0
  m_AreaSize: {x: 1, y: 1}
  m_BounceIntensity: 1
  m_ColorTemperature: 6570
  m_UseColorTemperature: 0
  m_BoundingSphereOverride: {x: 0, y: 0, z: 0, w: 0}
  m_UseBoundingSphereOverride: 0
  m_UseViewFrustumForShadowCasterCull: 1
  m_ShadowRadius: 0
  m_ShadowAngle: 0
--- !u!1001 &1291825931
PrefabInstance:
  m_ObjectHideFlags: 0
  serializedVersion: 2
  m_Modification:
    m_TransformParent: {fileID: 0}
    m_Modifications:
    - target: {fileID: 100002, guid: 002827ae41915cb4ab705371bc8c3adf, type: 3}
      propertyPath: m_IsActive
      value: 0
      objectReference: {fileID: 0}
    - target: {fileID: 100004, guid: 002827ae41915cb4ab705371bc8c3adf, type: 3}
      propertyPath: m_IsActive
      value: 0
      objectReference: {fileID: 0}
    - target: {fileID: 100008, guid: 002827ae41915cb4ab705371bc8c3adf, type: 3}
      propertyPath: m_IsActive
      value: 0
      objectReference: {fileID: 0}
    - target: {fileID: 100010, guid: 002827ae41915cb4ab705371bc8c3adf, type: 3}
      propertyPath: m_IsActive
      value: 0
      objectReference: {fileID: 0}
    - target: {fileID: 400000, guid: 002827ae41915cb4ab705371bc8c3adf, type: 3}
      propertyPath: m_RootOrder
      value: 1
      objectReference: {fileID: 0}
    - target: {fileID: 400000, guid: 002827ae41915cb4ab705371bc8c3adf, type: 3}
      propertyPath: m_LocalPosition.x
      value: 96.7
      objectReference: {fileID: 0}
    - target: {fileID: 400000, guid: 002827ae41915cb4ab705371bc8c3adf, type: 3}
      propertyPath: m_LocalPosition.y
      value: 18.411741
      objectReference: {fileID: 0}
    - target: {fileID: 400000, guid: 002827ae41915cb4ab705371bc8c3adf, type: 3}
      propertyPath: m_LocalPosition.z
      value: 110.6
      objectReference: {fileID: 0}
    - target: {fileID: 400000, guid: 002827ae41915cb4ab705371bc8c3adf, type: 3}
      propertyPath: m_LocalRotation.w
      value: 1
      objectReference: {fileID: 0}
    - target: {fileID: 400000, guid: 002827ae41915cb4ab705371bc8c3adf, type: 3}
      propertyPath: m_LocalRotation.x
      value: 0
      objectReference: {fileID: 0}
    - target: {fileID: 400000, guid: 002827ae41915cb4ab705371bc8c3adf, type: 3}
      propertyPath: m_LocalRotation.y
      value: 0
      objectReference: {fileID: 0}
    - target: {fileID: 400000, guid: 002827ae41915cb4ab705371bc8c3adf, type: 3}
      propertyPath: m_LocalRotation.z
      value: 0
      objectReference: {fileID: 0}
    - target: {fileID: 400002, guid: 002827ae41915cb4ab705371bc8c3adf, type: 3}
      propertyPath: m_RootOrder
      value: 3
      objectReference: {fileID: 0}
    - target: {fileID: 400004, guid: 002827ae41915cb4ab705371bc8c3adf, type: 3}
      propertyPath: m_RootOrder
      value: 2
      objectReference: {fileID: 0}
    - target: {fileID: 400008, guid: 002827ae41915cb4ab705371bc8c3adf, type: 3}
      propertyPath: m_RootOrder
      value: 0
      objectReference: {fileID: 0}
    - target: {fileID: 400008, guid: 002827ae41915cb4ab705371bc8c3adf, type: 3}
      propertyPath: m_LocalScale.x
      value: 0.55253386
      objectReference: {fileID: 0}
    - target: {fileID: 400008, guid: 002827ae41915cb4ab705371bc8c3adf, type: 3}
      propertyPath: m_LocalScale.y
      value: 0.55253386
      objectReference: {fileID: 0}
    - target: {fileID: 400008, guid: 002827ae41915cb4ab705371bc8c3adf, type: 3}
      propertyPath: m_LocalScale.z
      value: 0.55253386
      objectReference: {fileID: 0}
    - target: {fileID: 400008, guid: 002827ae41915cb4ab705371bc8c3adf, type: 3}
      propertyPath: m_LocalPosition.x
      value: -69.49
      objectReference: {fileID: 0}
    - target: {fileID: 400008, guid: 002827ae41915cb4ab705371bc8c3adf, type: 3}
      propertyPath: m_LocalPosition.y
      value: -8.89
      objectReference: {fileID: 0}
    - target: {fileID: 400008, guid: 002827ae41915cb4ab705371bc8c3adf, type: 3}
      propertyPath: m_LocalPosition.z
      value: -61.44
      objectReference: {fileID: 0}
    - target: {fileID: 400008, guid: 002827ae41915cb4ab705371bc8c3adf, type: 3}
      propertyPath: m_LocalRotation.w
      value: 0.69849783
      objectReference: {fileID: 0}
    - target: {fileID: 400008, guid: 002827ae41915cb4ab705371bc8c3adf, type: 3}
      propertyPath: m_LocalRotation.x
      value: -0.45068076
      objectReference: {fileID: 0}
    - target: {fileID: 400008, guid: 002827ae41915cb4ab705371bc8c3adf, type: 3}
      propertyPath: m_LocalRotation.y
      value: 0.52710044
      objectReference: {fileID: 0}
    - target: {fileID: 400008, guid: 002827ae41915cb4ab705371bc8c3adf, type: 3}
      propertyPath: m_LocalRotation.z
      value: 0.17650177
      objectReference: {fileID: 0}
    - target: {fileID: 400008, guid: 002827ae41915cb4ab705371bc8c3adf, type: 3}
      propertyPath: m_LocalEulerAnglesHint.x
      value: -54.6534
      objectReference: {fileID: 0}
    - target: {fileID: 400008, guid: 002827ae41915cb4ab705371bc8c3adf, type: 3}
      propertyPath: m_LocalEulerAnglesHint.y
      value: 86.223495
      objectReference: {fileID: 0}
    - target: {fileID: 400008, guid: 002827ae41915cb4ab705371bc8c3adf, type: 3}
      propertyPath: m_LocalEulerAnglesHint.z
      value: -23.268099
      objectReference: {fileID: 0}
    - target: {fileID: 400010, guid: 002827ae41915cb4ab705371bc8c3adf, type: 3}
      propertyPath: m_RootOrder
      value: 1
      objectReference: {fileID: 0}
    - target: {fileID: 400010, guid: 002827ae41915cb4ab705371bc8c3adf, type: 3}
      propertyPath: m_LocalScale.x
      value: 0.28871098
      objectReference: {fileID: 0}
    - target: {fileID: 400010, guid: 002827ae41915cb4ab705371bc8c3adf, type: 3}
      propertyPath: m_LocalScale.y
      value: 1.3040422
      objectReference: {fileID: 0}
    - target: {fileID: 400010, guid: 002827ae41915cb4ab705371bc8c3adf, type: 3}
      propertyPath: m_LocalScale.z
      value: 0.28871098
      objectReference: {fileID: 0}
    - target: {fileID: 400010, guid: 002827ae41915cb4ab705371bc8c3adf, type: 3}
      propertyPath: m_LocalPosition.x
      value: -88.28
      objectReference: {fileID: 0}
    - target: {fileID: 400010, guid: 002827ae41915cb4ab705371bc8c3adf, type: 3}
      propertyPath: m_LocalPosition.y
      value: -10.07
      objectReference: {fileID: 0}
    - target: {fileID: 400010, guid: 002827ae41915cb4ab705371bc8c3adf, type: 3}
      propertyPath: m_LocalPosition.z
      value: -40.07
      objectReference: {fileID: 0}
    - target: {fileID: 400010, guid: 002827ae41915cb4ab705371bc8c3adf, type: 3}
      propertyPath: m_LocalRotation.w
      value: 0.8531618
      objectReference: {fileID: 0}
    - target: {fileID: 400010, guid: 002827ae41915cb4ab705371bc8c3adf, type: 3}
      propertyPath: m_LocalRotation.x
      value: 0.49187618
      objectReference: {fileID: 0}
    - target: {fileID: 400010, guid: 002827ae41915cb4ab705371bc8c3adf, type: 3}
      propertyPath: m_LocalRotation.y
      value: 0.030320656
      objectReference: {fileID: 0}
    - target: {fileID: 400010, guid: 002827ae41915cb4ab705371bc8c3adf, type: 3}
      propertyPath: m_LocalRotation.z
      value: -0.17103642
      objectReference: {fileID: 0}
    - target: {fileID: 400010, guid: 002827ae41915cb4ab705371bc8c3adf, type: 3}
      propertyPath: m_LocalEulerAnglesHint.x
      value: 58.176
      objectReference: {fileID: 0}
    - target: {fileID: 400010, guid: 002827ae41915cb4ab705371bc8c3adf, type: 3}
      propertyPath: m_LocalEulerAnglesHint.y
      value: -12.7661
      objectReference: {fileID: 0}
    - target: {fileID: 400010, guid: 002827ae41915cb4ab705371bc8c3adf, type: 3}
      propertyPath: m_LocalEulerAnglesHint.z
      value: -29.7944
      objectReference: {fileID: 0}
    - target: {fileID: 400012, guid: 002827ae41915cb4ab705371bc8c3adf, type: 3}
      propertyPath: m_LocalScale.z
      value: 15.285454
      objectReference: {fileID: 0}
    - target: {fileID: 400014, guid: 002827ae41915cb4ab705371bc8c3adf, type: 3}
      propertyPath: m_RootOrder
      value: 4
      objectReference: {fileID: 0}
    - target: {fileID: 400014, guid: 002827ae41915cb4ab705371bc8c3adf, type: 3}
      propertyPath: m_LocalScale.x
      value: 2.1370506
      objectReference: {fileID: 0}
    - target: {fileID: 400014, guid: 002827ae41915cb4ab705371bc8c3adf, type: 3}
      propertyPath: m_LocalScale.y
      value: 2.1370509
      objectReference: {fileID: 0}
    - target: {fileID: 400014, guid: 002827ae41915cb4ab705371bc8c3adf, type: 3}
      propertyPath: m_LocalScale.z
      value: 2.1370509
      objectReference: {fileID: 0}
    - target: {fileID: 400014, guid: 002827ae41915cb4ab705371bc8c3adf, type: 3}
      propertyPath: m_LocalPosition.x
      value: -81.51
      objectReference: {fileID: 0}
    - target: {fileID: 400014, guid: 002827ae41915cb4ab705371bc8c3adf, type: 3}
      propertyPath: m_LocalPosition.y
      value: -15.02
      objectReference: {fileID: 0}
    - target: {fileID: 400014, guid: 002827ae41915cb4ab705371bc8c3adf, type: 3}
      propertyPath: m_LocalPosition.z
      value: -50.32
      objectReference: {fileID: 0}
    - target: {fileID: 400014, guid: 002827ae41915cb4ab705371bc8c3adf, type: 3}
      propertyPath: m_LocalRotation.w
      value: 0.91647595
      objectReference: {fileID: 0}
    - target: {fileID: 400014, guid: 002827ae41915cb4ab705371bc8c3adf, type: 3}
      propertyPath: m_LocalRotation.y
      value: -0.4000899
      objectReference: {fileID: 0}
    - target: {fileID: 400014, guid: 002827ae41915cb4ab705371bc8c3adf, type: 3}
      propertyPath: m_LocalEulerAnglesHint.y
      value: -47.1676
      objectReference: {fileID: 0}
    - target: {fileID: 400016, guid: 002827ae41915cb4ab705371bc8c3adf, type: 3}
      propertyPath: m_LocalScale.z
      value: 13.143209
      objectReference: {fileID: 0}
    - target: {fileID: 400016, guid: 002827ae41915cb4ab705371bc8c3adf, type: 3}
      propertyPath: m_LocalPosition.x
      value: 3.38
      objectReference: {fileID: 0}
    - target: {fileID: 400016, guid: 002827ae41915cb4ab705371bc8c3adf, type: 3}
      propertyPath: m_LocalPosition.z
      value: -46.28
      objectReference: {fileID: 0}
    - target: {fileID: 2300006, guid: 002827ae41915cb4ab705371bc8c3adf, type: 3}
      propertyPath: m_Materials.Array.data[0]
      value: 
      objectReference: {fileID: 2100000, guid: 1dfc0f40ec6d086409ec9ad9f9569f93, type: 2}
    - target: {fileID: 2300008, guid: 002827ae41915cb4ab705371bc8c3adf, type: 3}
      propertyPath: m_Materials.Array.data[0]
      value: 
      objectReference: {fileID: 2100000, guid: 1dfc0f40ec6d086409ec9ad9f9569f93, type: 2}
    - target: {fileID: 2300010, guid: 002827ae41915cb4ab705371bc8c3adf, type: 3}
      propertyPath: m_Materials.Array.data[0]
      value: 
      objectReference: {fileID: 2100000, guid: 1dfc0f40ec6d086409ec9ad9f9569f93, type: 2}
    - target: {fileID: 2300012, guid: 002827ae41915cb4ab705371bc8c3adf, type: 3}
      propertyPath: m_CastShadows
      value: 0
      objectReference: {fileID: 0}
    - target: {fileID: 2300012, guid: 002827ae41915cb4ab705371bc8c3adf, type: 3}
      propertyPath: m_Materials.Array.data[0]
      value: 
      objectReference: {fileID: 2100000, guid: 4f9233477521f434984e3c0c8f70083e, type: 2}
    m_RemovedComponents: []
  m_SourcePrefab: {fileID: 100100000, guid: 002827ae41915cb4ab705371bc8c3adf, type: 3}
--- !u!4 &1291825932 stripped
Transform:
  m_CorrespondingSourceObject: {fileID: 400014, guid: 002827ae41915cb4ab705371bc8c3adf, type: 3}
  m_PrefabInstance: {fileID: 1291825931}
  m_PrefabAsset: {fileID: 0}
--- !u!1 &1372461949
GameObject:
  m_ObjectHideFlags: 0
  m_CorrespondingSourceObject: {fileID: 0}
  m_PrefabInstance: {fileID: 0}
  m_PrefabAsset: {fileID: 0}
  serializedVersion: 6
  m_Component:
  - component: {fileID: 1372461950}
  m_Layer: 8
  m_Name: lighting
  m_TagString: Untagged
  m_Icon: {fileID: 0}
  m_NavMeshLayer: 0
  m_StaticEditorFlags: 0
  m_IsActive: 1
--- !u!4 &1372461950
Transform:
  m_ObjectHideFlags: 0
  m_CorrespondingSourceObject: {fileID: 0}
  m_PrefabInstance: {fileID: 0}
  m_PrefabAsset: {fileID: 0}
  m_GameObject: {fileID: 1372461949}
  m_LocalRotation: {x: 0, y: 0, z: 0, w: 1}
  m_LocalPosition: {x: -134.01654, y: 23.704638, z: -74.13476}
  m_LocalScale: {x: 1, y: 1, z: 1}
  m_Children:
  - {fileID: 1559983297}
  m_Father: {fileID: 0}
  m_RootOrder: 3
  m_LocalEulerAnglesHint: {x: 0, y: 0, z: 0}
--- !u!1 &1385041908
GameObject:
  m_ObjectHideFlags: 0
  m_CorrespondingSourceObject: {fileID: 0}
  m_PrefabInstance: {fileID: 0}
  m_PrefabAsset: {fileID: 0}
  serializedVersion: 6
  m_Component:
  - component: {fileID: 1385041909}
  - component: {fileID: 1385041910}
  m_Layer: 8
  m_Name: Directional light_fill
  m_TagString: Untagged
  m_Icon: {fileID: 0}
  m_NavMeshLayer: 0
  m_StaticEditorFlags: 0
  m_IsActive: 0
--- !u!4 &1385041909
Transform:
  m_ObjectHideFlags: 0
  m_CorrespondingSourceObject: {fileID: 0}
  m_PrefabInstance: {fileID: 0}
  m_PrefabAsset: {fileID: 0}
  m_GameObject: {fileID: 1385041908}
  m_LocalRotation: {x: -0.35773692, y: -0.32928523, z: 0.13084964, w: -0.86398727}
  m_LocalPosition: {x: -28.156055, y: 5.7836957, z: -14.983322}
  m_LocalScale: {x: 373.21893, y: 373.219, z: 373.21893}
  m_Children: []
  m_Father: {fileID: 1559983297}
  m_RootOrder: 1
  m_LocalEulerAnglesHint: {x: 44.7758, y: 42.0415, z: 0.766}
--- !u!108 &1385041910
Light:
  m_ObjectHideFlags: 0
  m_CorrespondingSourceObject: {fileID: 0}
  m_PrefabInstance: {fileID: 0}
  m_PrefabAsset: {fileID: 0}
  m_GameObject: {fileID: 1385041908}
  m_Enabled: 1
  serializedVersion: 10
  m_Type: 1
  m_Shape: 0
  m_Color: {r: 1, g: 1, b: 1, a: 1}
  m_Intensity: 0.3
  m_Range: 10
  m_SpotAngle: 30
  m_InnerSpotAngle: 21.802082
  m_CookieSize: 10
  m_Shadows:
    m_Type: 0
    m_Resolution: -1
    m_CustomResolution: -1
    m_Strength: 1
    m_Bias: 0.05
    m_NormalBias: 0.4
    m_NearPlane: 0.2
    m_CullingMatrixOverride:
      e00: 1
      e01: 0
      e02: 0
      e03: 0
      e10: 0
      e11: 1
      e12: 0
      e13: 0
      e20: 0
      e21: 0
      e22: 1
      e23: 0
      e30: 0
      e31: 0
      e32: 0
      e33: 1
    m_UseCullingMatrixOverride: 0
  m_Cookie: {fileID: 0}
  m_DrawHalo: 0
  m_Flare: {fileID: 0}
  m_RenderMode: 0
  m_CullingMask:
    serializedVersion: 2
    m_Bits: 4294967295
  m_RenderingLayerMask: 1
  m_Lightmapping: 2
  m_LightShadowCasterMode: 0
  m_AreaSize: {x: 1, y: 1}
  m_BounceIntensity: 0
  m_ColorTemperature: 6570
  m_UseColorTemperature: 0
  m_BoundingSphereOverride: {x: 0, y: 0, z: 0, w: 0}
  m_UseBoundingSphereOverride: 0
  m_UseViewFrustumForShadowCasterCull: 1
  m_ShadowRadius: 0
  m_ShadowAngle: 0
--- !u!1 &1559983296
GameObject:
  m_ObjectHideFlags: 0
  m_CorrespondingSourceObject: {fileID: 0}
  m_PrefabInstance: {fileID: 0}
  m_PrefabAsset: {fileID: 0}
  serializedVersion: 6
  m_Component:
  - component: {fileID: 1559983297}
  m_Layer: 8
  m_Name: light_setup_A
  m_TagString: Untagged
  m_Icon: {fileID: 0}
  m_NavMeshLayer: 0
  m_StaticEditorFlags: 0
  m_IsActive: 1
--- !u!4 &1559983297
Transform:
  m_ObjectHideFlags: 0
  m_CorrespondingSourceObject: {fileID: 0}
  m_PrefabInstance: {fileID: 0}
  m_PrefabAsset: {fileID: 0}
  m_GameObject: {fileID: 1559983296}
  m_LocalRotation: {x: 0, y: 0, z: 0, w: 1}
  m_LocalPosition: {x: 131.17262, y: -25.088589, z: 80.75808}
  m_LocalScale: {x: 1, y: 1, z: 1}
  m_Children:
  - {fileID: 1015704715}
  - {fileID: 1385041909}
  m_Father: {fileID: 1372461950}
  m_RootOrder: 0
  m_LocalEulerAnglesHint: {x: 0, y: 0, z: 0}
--- !u!1 &1586211469
GameObject:
  m_ObjectHideFlags: 0
  m_CorrespondingSourceObject: {fileID: 0}
  m_PrefabInstance: {fileID: 0}
  m_PrefabAsset: {fileID: 0}
  serializedVersion: 6
  m_Component:
  - component: {fileID: 1586211470}
  m_Layer: 0
  m_Name: primitives
  m_TagString: Untagged
  m_Icon: {fileID: 0}
  m_NavMeshLayer: 0
  m_StaticEditorFlags: 0
  m_IsActive: 1
--- !u!4 &1586211470
Transform:
  m_ObjectHideFlags: 0
  m_CorrespondingSourceObject: {fileID: 0}
  m_PrefabInstance: {fileID: 0}
  m_PrefabAsset: {fileID: 0}
  m_GameObject: {fileID: 1586211469}
  m_LocalRotation: {x: 0, y: 0.38268346, z: 0, w: 0.9238795}
  m_LocalPosition: {x: 6.762562, y: -0.29765087, z: -0.45723712}
  m_LocalScale: {x: 0.46793464, y: 0.46793458, z: 0.46793464}
  m_Children: []
  m_Father: {fileID: 1291825932}
  m_RootOrder: 2
  m_LocalEulerAnglesHint: {x: 0, y: 45, z: 0}
--- !u!1 &1842879882
GameObject:
  m_ObjectHideFlags: 0
  m_CorrespondingSourceObject: {fileID: 0}
  m_PrefabInstance: {fileID: 0}
  m_PrefabAsset: {fileID: 0}
  serializedVersion: 6
  m_Component:
  - component: {fileID: 1842879886}
  - component: {fileID: 1842879885}
  - component: {fileID: 1842879884}
  - component: {fileID: 1842879883}
  m_Layer: 0
  m_Name: Sphere
  m_TagString: Untagged
  m_Icon: {fileID: 0}
  m_NavMeshLayer: 0
  m_StaticEditorFlags: 0
  m_IsActive: 1
--- !u!23 &1842879883
MeshRenderer:
  m_ObjectHideFlags: 0
  m_CorrespondingSourceObject: {fileID: 0}
  m_PrefabInstance: {fileID: 0}
  m_PrefabAsset: {fileID: 0}
  m_GameObject: {fileID: 1842879882}
  m_Enabled: 1
  m_CastShadows: 1
  m_ReceiveShadows: 1
  m_DynamicOccludee: 1
  m_MotionVectors: 1
  m_LightProbeUsage: 1
  m_ReflectionProbeUsage: 1
  m_RayTracingMode: 2
  m_RayTraceProcedural: 0
  m_RenderingLayerMask: 1
  m_RendererPriority: 0
  m_Materials:
  - {fileID: 2100000, guid: 1dfc0f40ec6d086409ec9ad9f9569f93, type: 2}
  m_StaticBatchInfo:
    firstSubMesh: 0
    subMeshCount: 0
  m_StaticBatchRoot: {fileID: 0}
  m_ProbeAnchor: {fileID: 0}
  m_LightProbeVolumeOverride: {fileID: 0}
  m_ScaleInLightmap: 1
  m_ReceiveGI: 1
  m_PreserveUVs: 1
  m_IgnoreNormalsForChartDetection: 0
  m_ImportantGI: 0
  m_StitchLightmapSeams: 1
  m_SelectedEditorRenderState: 3
  m_MinimumChartSize: 4
  m_AutoUVMaxDistance: 0.5
  m_AutoUVMaxAngle: 89
  m_LightmapParameters: {fileID: 0}
  m_SortingLayerID: 0
  m_SortingLayer: 0
  m_SortingOrder: 0
  m_AdditionalVertexStreams: {fileID: 0}
--- !u!135 &1842879884
SphereCollider:
  m_ObjectHideFlags: 0
  m_CorrespondingSourceObject: {fileID: 0}
  m_PrefabInstance: {fileID: 0}
  m_PrefabAsset: {fileID: 0}
  m_GameObject: {fileID: 1842879882}
  m_Material: {fileID: 0}
  m_IsTrigger: 0
  m_Enabled: 1
  serializedVersion: 2
  m_Radius: 0.5
  m_Center: {x: 0, y: 0, z: 0}
--- !u!33 &1842879885
MeshFilter:
  m_ObjectHideFlags: 0
  m_CorrespondingSourceObject: {fileID: 0}
  m_PrefabInstance: {fileID: 0}
  m_PrefabAsset: {fileID: 0}
  m_GameObject: {fileID: 1842879882}
  m_Mesh: {fileID: 10207, guid: 0000000000000000e000000000000000, type: 0}
--- !u!4 &1842879886
Transform:
  m_ObjectHideFlags: 0
  m_CorrespondingSourceObject: {fileID: 0}
  m_PrefabInstance: {fileID: 0}
  m_PrefabAsset: {fileID: 0}
  m_GameObject: {fileID: 1842879882}
  m_LocalRotation: {x: 0, y: 0.38268346, z: 0, w: 0.9238795}
  m_LocalPosition: {x: -0.12904038, y: 2.292065, z: 0.089336425}
  m_LocalScale: {x: 3.823391, y: 3.8233898, z: 3.8233902}
  m_Children: []
  m_Father: {fileID: 1291825932}
  m_RootOrder: 3
  m_LocalEulerAnglesHint: {x: 0, y: 45, z: 0}
--- !u!1 &1845190209
GameObject:
  m_ObjectHideFlags: 0
  m_CorrespondingSourceObject: {fileID: 0}
  m_PrefabInstance: {fileID: 0}
  m_PrefabAsset: {fileID: 0}
  serializedVersion: 6
  m_Component:
  - component: {fileID: 1845190214}
  - component: {fileID: 1845190213}
  - component: {fileID: 1845190211}
  - component: {fileID: 1845190210}
  m_Layer: 0
  m_Name: Main Camera
  m_TagString: MainCamera
  m_Icon: {fileID: 0}
  m_NavMeshLayer: 0
  m_StaticEditorFlags: 0
  m_IsActive: 0
--- !u!81 &1845190210
AudioListener:
  m_ObjectHideFlags: 0
  m_CorrespondingSourceObject: {fileID: 0}
  m_PrefabInstance: {fileID: 0}
  m_PrefabAsset: {fileID: 0}
  m_GameObject: {fileID: 1845190209}
  m_Enabled: 1
--- !u!124 &1845190211
Behaviour:
  m_ObjectHideFlags: 0
  m_CorrespondingSourceObject: {fileID: 0}
  m_PrefabInstance: {fileID: 0}
  m_PrefabAsset: {fileID: 0}
  m_GameObject: {fileID: 1845190209}
  m_Enabled: 1
--- !u!20 &1845190213
Camera:
  m_ObjectHideFlags: 0
  m_CorrespondingSourceObject: {fileID: 0}
  m_PrefabInstance: {fileID: 0}
  m_PrefabAsset: {fileID: 0}
  m_GameObject: {fileID: 1845190209}
  m_Enabled: 1
  serializedVersion: 2
  m_ClearFlags: 1
  m_BackGroundColor: {r: 0.19215687, g: 0.3019608, b: 0.4745098, a: 0.019607844}
  m_projectionMatrixMode: 1
  m_GateFitMode: 2
  m_FOVAxisMode: 0
  m_SensorSize: {x: 36, y: 24}
  m_LensShift: {x: 0, y: 0}
  m_FocalLength: 50
  m_NormalizedViewPortRect:
    serializedVersion: 2
    x: 0
    y: 0
    width: 1
    height: 1
  near clip plane: 0.3
  far clip plane: 1000
  field of view: 60
  orthographic: 0
  orthographic size: 5
  m_Depth: -1
  m_CullingMask:
    serializedVersion: 2
    m_Bits: 4294967295
  m_RenderingPath: -1
  m_TargetTexture: {fileID: 0}
  m_TargetDisplay: 0
  m_TargetEye: 3
  m_HDR: 1
  m_AllowMSAA: 1
  m_AllowDynamicResolution: 0
  m_ForceIntoRT: 0
  m_OcclusionCulling: 1
  m_StereoConvergence: 10
  m_StereoSeparation: 0.022
--- !u!4 &1845190214
Transform:
  m_ObjectHideFlags: 0
  m_CorrespondingSourceObject: {fileID: 0}
  m_PrefabInstance: {fileID: 0}
  m_PrefabAsset: {fileID: 0}
  m_GameObject: {fileID: 1845190209}
  m_LocalRotation: {x: 0.10500293, y: 0.6992669, z: -0.1050029, w: 0.6992672}
  m_LocalPosition: {x: -94.07, y: 30.59, z: 96.93}
  m_LocalScale: {x: 1, y: 1, z: 1}
  m_Children: []
  m_Father: {fileID: 0}
  m_RootOrder: 0
  m_LocalEulerAnglesHint: {x: 17.0796, y: 90, z: 0}
--- !u!1 &1913669571
GameObject:
  m_ObjectHideFlags: 0
  m_CorrespondingSourceObject: {fileID: 0}
  m_PrefabInstance: {fileID: 0}
  m_PrefabAsset: {fileID: 0}
  serializedVersion: 6
  m_Component:
  - component: {fileID: 1913669575}
  - component: {fileID: 1913669574}
  - component: {fileID: 1913669573}
  - component: {fileID: 1913669572}
  m_Layer: 0
  m_Name: Cylinder
  m_TagString: Untagged
  m_Icon: {fileID: 0}
  m_NavMeshLayer: 0
  m_StaticEditorFlags: 0
  m_IsActive: 1
--- !u!23 &1913669572
MeshRenderer:
  m_ObjectHideFlags: 0
  m_CorrespondingSourceObject: {fileID: 0}
  m_PrefabInstance: {fileID: 0}
  m_PrefabAsset: {fileID: 0}
  m_GameObject: {fileID: 1913669571}
  m_Enabled: 1
  m_CastShadows: 1
  m_ReceiveShadows: 1
  m_DynamicOccludee: 1
  m_MotionVectors: 1
  m_LightProbeUsage: 1
  m_ReflectionProbeUsage: 1
  m_RayTracingMode: 2
  m_RayTraceProcedural: 0
  m_RenderingLayerMask: 1
  m_RendererPriority: 0
  m_Materials:
  - {fileID: 2100000, guid: 1dfc0f40ec6d086409ec9ad9f9569f93, type: 2}
  m_StaticBatchInfo:
    firstSubMesh: 0
    subMeshCount: 0
  m_StaticBatchRoot: {fileID: 0}
  m_ProbeAnchor: {fileID: 0}
  m_LightProbeVolumeOverride: {fileID: 0}
  m_ScaleInLightmap: 1
  m_ReceiveGI: 1
  m_PreserveUVs: 1
  m_IgnoreNormalsForChartDetection: 0
  m_ImportantGI: 0
  m_StitchLightmapSeams: 1
  m_SelectedEditorRenderState: 3
  m_MinimumChartSize: 4
  m_AutoUVMaxDistance: 0.5
  m_AutoUVMaxAngle: 89
  m_LightmapParameters: {fileID: 0}
  m_SortingLayerID: 0
  m_SortingLayer: 0
  m_SortingOrder: 0
  m_AdditionalVertexStreams: {fileID: 0}
--- !u!136 &1913669573
CapsuleCollider:
  m_ObjectHideFlags: 0
  m_CorrespondingSourceObject: {fileID: 0}
  m_PrefabInstance: {fileID: 0}
  m_PrefabAsset: {fileID: 0}
  m_GameObject: {fileID: 1913669571}
  m_Material: {fileID: 0}
  m_IsTrigger: 0
  m_Enabled: 1
  m_Radius: 0.5
  m_Height: 2
  m_Direction: 1
  m_Center: {x: 0, y: 0, z: 0}
--- !u!33 &1913669574
MeshFilter:
  m_ObjectHideFlags: 0
  m_CorrespondingSourceObject: {fileID: 0}
  m_PrefabInstance: {fileID: 0}
  m_PrefabAsset: {fileID: 0}
  m_GameObject: {fileID: 1913669571}
  m_Mesh: {fileID: 10206, guid: 0000000000000000e000000000000000, type: 0}
--- !u!4 &1913669575
Transform:
  m_ObjectHideFlags: 0
  m_CorrespondingSourceObject: {fileID: 0}
  m_PrefabInstance: {fileID: 0}
  m_PrefabAsset: {fileID: 0}
  m_GameObject: {fileID: 1913669571}
  m_LocalRotation: {x: 0.40169567, y: 0.2128589, z: -0.25889343, w: 0.85223585}
  m_LocalPosition: {x: 6.67, y: 8.6, z: 71.12}
  m_LocalScale: {x: 3.9021382, y: 4.5036783, z: 3.9021373}
  m_Children: []
  m_Father: {fileID: 0}
  m_RootOrder: 5
  m_LocalEulerAnglesHint: {x: 52.645298, y: 14.783199, z: -26.451199}
--- !u!1 &1999939406
GameObject:
  m_ObjectHideFlags: 0
  m_CorrespondingSourceObject: {fileID: 0}
  m_PrefabInstance: {fileID: 0}
  m_PrefabAsset: {fileID: 0}
  serializedVersion: 6
  m_Component:
  - component: {fileID: 1999939410}
  - component: {fileID: 1999939409}
  - component: {fileID: 1999939408}
  - component: {fileID: 1999939407}
  m_Layer: 0
  m_Name: Cube
  m_TagString: Untagged
  m_Icon: {fileID: 0}
  m_NavMeshLayer: 0
  m_StaticEditorFlags: 0
  m_IsActive: 1
--- !u!23 &1999939407
MeshRenderer:
  m_ObjectHideFlags: 0
  m_CorrespondingSourceObject: {fileID: 0}
  m_PrefabInstance: {fileID: 0}
  m_PrefabAsset: {fileID: 0}
  m_GameObject: {fileID: 1999939406}
  m_Enabled: 1
  m_CastShadows: 1
  m_ReceiveShadows: 1
  m_DynamicOccludee: 1
  m_MotionVectors: 1
  m_LightProbeUsage: 1
  m_ReflectionProbeUsage: 1
  m_RayTracingMode: 2
  m_RayTraceProcedural: 0
  m_RenderingLayerMask: 1
  m_RendererPriority: 0
  m_Materials:
  - {fileID: 2100000, guid: 1dfc0f40ec6d086409ec9ad9f9569f93, type: 2}
  m_StaticBatchInfo:
    firstSubMesh: 0
    subMeshCount: 0
  m_StaticBatchRoot: {fileID: 0}
  m_ProbeAnchor: {fileID: 0}
  m_LightProbeVolumeOverride: {fileID: 0}
  m_ScaleInLightmap: 1
  m_ReceiveGI: 1
  m_PreserveUVs: 1
  m_IgnoreNormalsForChartDetection: 0
  m_ImportantGI: 0
  m_StitchLightmapSeams: 1
  m_SelectedEditorRenderState: 3
  m_MinimumChartSize: 4
  m_AutoUVMaxDistance: 0.5
  m_AutoUVMaxAngle: 89
  m_LightmapParameters: {fileID: 0}
  m_SortingLayerID: 0
  m_SortingLayer: 0
  m_SortingOrder: 0
  m_AdditionalVertexStreams: {fileID: 0}
--- !u!65 &1999939408
BoxCollider:
  m_ObjectHideFlags: 0
  m_CorrespondingSourceObject: {fileID: 0}
  m_PrefabInstance: {fileID: 0}
  m_PrefabAsset: {fileID: 0}
  m_GameObject: {fileID: 1999939406}
  m_Material: {fileID: 0}
  m_IsTrigger: 0
  m_Enabled: 1
  serializedVersion: 2
  m_Size: {x: 1, y: 1, z: 1}
  m_Center: {x: 0, y: 0, z: 0}
--- !u!33 &1999939409
MeshFilter:
  m_ObjectHideFlags: 0
  m_CorrespondingSourceObject: {fileID: 0}
  m_PrefabInstance: {fileID: 0}
  m_PrefabAsset: {fileID: 0}
  m_GameObject: {fileID: 1999939406}
  m_Mesh: {fileID: 10202, guid: 0000000000000000e000000000000000, type: 0}
--- !u!4 &1999939410
Transform:
  m_ObjectHideFlags: 0
  m_CorrespondingSourceObject: {fileID: 0}
  m_PrefabInstance: {fileID: 0}
  m_PrefabAsset: {fileID: 0}
  m_GameObject: {fileID: 1999939406}
  m_LocalRotation: {x: -0.017085658, y: 0.16279665, z: 0.5224807, w: -0.83679104}
  m_LocalPosition: {x: 31.36, y: 8.46, z: 47.41}
  m_LocalScale: {x: 5.369882, y: 5.3698826, z: 5.3698826}
  m_Children: []
  m_Father: {fileID: 0}
  m_RootOrder: 4
  m_LocalEulerAnglesHint: {x: -8.1359, y: -17.0532, z: 297.2616}
--- !u!1 &2045995837
GameObject:
  m_ObjectHideFlags: 0
  m_CorrespondingSourceObject: {fileID: 0}
  m_PrefabInstance: {fileID: 0}
  m_PrefabAsset: {fileID: 0}
  serializedVersion: 6
  m_Component:
  - component: {fileID: 2045995838}
  - component: {fileID: 2045995842}
  - component: {fileID: 2045995840}
  - component: {fileID: 2045995839}
  - component: {fileID: 2045995843}
  - component: {fileID: 2045995844}
  - component: {fileID: 2045995845}
  m_Layer: 0
  m_Name: Primary_camera
  m_TagString: MainCamera
  m_Icon: {fileID: 0}
  m_NavMeshLayer: 0
  m_StaticEditorFlags: 0
  m_IsActive: 1
--- !u!4 &2045995838
Transform:
  m_ObjectHideFlags: 0
  m_CorrespondingSourceObject: {fileID: 0}
  m_PrefabInstance: {fileID: 0}
  m_PrefabAsset: {fileID: 0}
  m_GameObject: {fileID: 2045995837}
  m_LocalRotation: {x: 0.08485178, y: 0.70199734, z: -0.08485178, w: 0.7019972}
  m_LocalPosition: {x: -64.1, y: 30.5, z: 60.8}
  m_LocalScale: {x: 1, y: 1, z: 1}
  m_Children: []
  m_Father: {fileID: 0}
  m_RootOrder: 2
  m_LocalEulerAnglesHint: {x: 13.783999, y: 90, z: 0}
--- !u!81 &2045995839
AudioListener:
  m_ObjectHideFlags: 0
  m_CorrespondingSourceObject: {fileID: 0}
  m_PrefabInstance: {fileID: 0}
  m_PrefabAsset: {fileID: 0}
  m_GameObject: {fileID: 2045995837}
  m_Enabled: 1
--- !u!124 &2045995840
Behaviour:
  m_ObjectHideFlags: 0
  m_CorrespondingSourceObject: {fileID: 0}
  m_PrefabInstance: {fileID: 0}
  m_PrefabAsset: {fileID: 0}
  m_GameObject: {fileID: 2045995837}
  m_Enabled: 1
--- !u!20 &2045995842
Camera:
  m_ObjectHideFlags: 0
  m_CorrespondingSourceObject: {fileID: 0}
  m_PrefabInstance: {fileID: 0}
  m_PrefabAsset: {fileID: 0}
  m_GameObject: {fileID: 2045995837}
  m_Enabled: 1
  serializedVersion: 2
  m_ClearFlags: 1
  m_BackGroundColor: {r: 0, g: 0, b: 0, a: 0.019607844}
  m_projectionMatrixMode: 1
  m_GateFitMode: 2
  m_FOVAxisMode: 0
  m_SensorSize: {x: 36, y: 24}
  m_LensShift: {x: 0, y: 0}
  m_FocalLength: 50
  m_NormalizedViewPortRect:
    serializedVersion: 2
    x: 0
    y: 0
    width: 1
    height: 1
  near clip plane: 0.3
  far clip plane: 4000
  field of view: 20
  orthographic: 0
  orthographic size: 66
  m_Depth: -1
  m_CullingMask:
    serializedVersion: 2
    m_Bits: 4294967295
  m_RenderingPath: -1
  m_TargetTexture: {fileID: 0}
  m_TargetDisplay: 0
  m_TargetEye: 3
  m_HDR: 1
  m_AllowMSAA: 1
  m_AllowDynamicResolution: 0
  m_ForceIntoRT: 0
  m_OcclusionCulling: 1
  m_StereoConvergence: 10
  m_StereoSeparation: 0.022
--- !u!114 &2045995843
MonoBehaviour:
  m_ObjectHideFlags: 0
  m_CorrespondingSourceObject: {fileID: 0}
  m_PrefabInstance: {fileID: 0}
  m_PrefabAsset: {fileID: 0}
  m_GameObject: {fileID: 2045995837}
  m_Enabled: 0
  m_EditorHideFlags: 0
  m_Script: {fileID: 11500000, guid: dd6d4281e5d7cd44d8c6e38bc2c1b8d8, type: 3}
  m_Name: 
  m_EditorClassIdentifier: 
  mode: 0
  intensity: 0.1
  chromaticAberration: 0.5
  axialAberration: 0.5
  blur: 0
  blurSpread: 1
  luminanceDependency: 0.25
  blurDistance: 2.5
  vignetteShader: {fileID: 4800000, guid: 627943dc7a9a74286b70a4f694a0acd5, type: 3}
  separableBlurShader: {fileID: 4800000, guid: e97c14fbb5ea04c3a902cc533d7fc5d1, type: 3}
  chromAberrationShader: {fileID: 4800000, guid: 2b4f29398d9484ccfa9fd220449f5eee, type: 3}
--- !u!114 &2045995844
MonoBehaviour:
  m_ObjectHideFlags: 0
  m_CorrespondingSourceObject: {fileID: 0}
  m_PrefabInstance: {fileID: 0}
  m_PrefabAsset: {fileID: 0}
  m_GameObject: {fileID: 2045995837}
  m_Enabled: 1
  m_EditorHideFlags: 0
  m_Script: {fileID: 11500000, guid: 7fceaeb339b971b429c4cc600acabd13, type: 3}
  m_Name: 
  m_EditorClassIdentifier: 
  tweakMode: 1
  screenBlendMode: 1
  hdr: 0
  sepBlurSpread: 2.63
  quality: 1
  bloomIntensity: 0.02
  bloomThreshold: 0.09
  bloomThresholdColor:
    r: 1
    g: 1
    b: 1
    a: 1
  bloomBlurIterations: 3
  hollywoodFlareBlurIterations: 2
  flareRotation: 0
  lensflareMode: 1
  hollyStretchWidth: 2.5
  lensflareIntensity: 0
  lensflareThreshold: 0
  lensFlareSaturation: 0.75
  flareColorA:
    r: 1
    g: 0.45937932
    b: 0.397
    a: 1
  flareColorB:
    r: 0.4
    g: 0.8
    b: 0.8
    a: 0.75
  flareColorC:
    r: 0.8
    g: 0.4
    b: 0.8
    a: 0.75
  flareColorD:
    r: 0.8
    g: 0.4
    b: 0
    a: 0.75
  lensFlareVignetteMask: {fileID: 2800000, guid: 95ef4804fe0be4c999ddaa383536cde8, type: 3}
  lensFlareShader: {fileID: 4800000, guid: 459fe69d2f6d74ddb92f04dbf45a866b, type: 3}
  screenBlendShader: {fileID: 4800000, guid: 7856cbff0a0ca45c787d5431eb805bb0, type: 3}
  blurAndFlaresShader: {fileID: 4800000, guid: be6e39cf196f146d5be72fbefb18ed75, type: 3}
  brightPassFilterShader: {fileID: 4800000, guid: 0aeaa4cb29f5d4e9c8455f04c8575c8c, type: 3}
--- !u!114 &2045995845
MonoBehaviour:
  m_ObjectHideFlags: 0
  m_CorrespondingSourceObject: {fileID: 0}
  m_PrefabInstance: {fileID: 0}
  m_PrefabAsset: {fileID: 0}
  m_GameObject: {fileID: 2045995837}
  m_Enabled: 1
  m_EditorHideFlags: 0
  m_Script: {fileID: 11500000, guid: fdc35e0180670ab4e8d2f9439137791f, type: 3}
  m_Name: 
  m_EditorClassIdentifier: 
  m_SMAA:
    settings:
      debugPass: 0
      quality: 2
      edgeDetectionMethod: 2
    quality:
      diagonalDetection: 1
      cornerDetection: 1
      threshold: 0.1
      depthThreshold: 0.01
      maxSearchSteps: 16
      maxDiagonalSearchSteps: 8
      cornerRounding: 25
      localContrastAdaptationFactor: 2
    predication:
      enabled: 0
      threshold: 0.01
      scale: 2
      strength: 0.4
    temporal:
      enabled: 0
      fuzzSize: 2
  m_FXAA:
    preset:
      qualitySettings:
        subpixelAliasingRemovalAmount: 0.75
        edgeDetectionThreshold: 0.166
        minimumRequiredLuminance: 0.0833
      consoleSettings:
        subpixelSpreadAmount: 0.5
        edgeSharpnessAmount: 8
        edgeDetectionThreshold: 0.125
        minimumRequiredLuminance: 0.05
  m_Method: 0
